{
	"id": "bc9c2a11-1796-4fc9-a75a-ab73a466ef0f",
	"name": "Techschool",
	"values": [
		{
			"key": "Email",
			"value": "2690821@abc.com",
			"enabled": true
		},
		{
			"key": "User_Id",
			"value": "5508583@abc.com",
			"enabled": true
		},
		{
			"key": "jwt",
			"value": "eyJhbGciOiJIUzI1NiIsInR5cCI6IkpXVCJ9.eyJkYXRhIjp7InVzZXJfaWQiOiI1NTA4NTgzQGFiYy5jb20iLCJzZXNzaW9uX2lkIjoiN2NmNDZlYWMtZTNkMi00YTQyLTk4MTgtNDhkNzBiODY4NWI5Iiwicm9sZXMiOlsiQVVUIiwiQURNIl0sInByZXZpbGVnZXMiOltdfSwiaWF0IjoxNjE0MTQ5ODY0LCJleHAiOjE2MTQxNTM0NjR9.2qDhjD9sI3F1v5Ks7w_Z374ZbGk1vLxUHLyZNL7JXV0",
			"enabled": true
		},
		{
			"key": "lesson_id",
			"value": "2",
			"enabled": true
		},
		{
			"key": "author_version",
			"value": "1",
			"enabled": true
		},
		{
			"key": "session_id",
			"value": "5",
			"enabled": true
		},
		{
			"key": "section_id",
			"value": "2",
			"enabled": true
		}
	],
	"_postman_variable_scope": "environment",
	"_postman_exported_at": "2021-02-24T06:59:16.873Z",
	"_postman_exported_using": "Postman/7.36.5"
}